{
    "antifeatures": {
        "Ads": "ഈ പ്രയോഗത്തില്‍ പരസ്യം നൽകിയിരിക്കുന്നു",
        "NonFreeAdd": "ഈ പ്രയോഗം സ്വതന്ത്രമല്ലാത്ത ആഡ്-ഓണുകള്‍ പ്രോത്സാഹിപ്പിക്കുന്നു",
        "NonFreeAssets": "ഈ പ്രയോഹം സ്വതന്ത്രമല്ലാത്ത ആസ്തികള്‍ ഉപയോഗിക്കുന്നു",
        "NonFreeDep": "ഈ പ്രയോഗം സ്വതന്ത്രമല്ലാത്ത മറ്റു പ്രയോഗങ്ങളെ ആശ്രയിക്കുന്നു",
        "NonFreeNet": "ഈ പ്രയോഗം സ്വതന്ത്രമല്ലാത്ത നെറ്റ്‌വര്‍ക് സേവനങ്ങള്‍ പ്രോത്സാഹിപ്പിക്കുന്നു",
        "Tracking": "ഈ പ്രയോഗം നിങ്ങളുടെ പ്രവര്‍ത്തനങ്ങള്‍ നിരീക്ഷിക്കുകയും പ്രസിദ്ധപ്പെടുത്തുകയും ചെയ്യുന്നു",
        "UpstreamNonFree": "അപ്സ്ട്രീം സോഴ്സ് കോഡ് പൂർണ്ണമായും സ്വതന്ത്രമല്ല"
    },
    "app_categories": {
        "Connectivity": "സമ്പർക്കനില",
        "Development": "ആപ്പ് നിർമാണം",
        "Games": "കളികൾ",
        "Graphics": "Graphics",
        "Internet": "Internet",
        "Money": "സാമ്പത്തികം",
        "Multimedia": "Multimedia",
        "Navigation": "Navigation",
        "Phone & SMS": "ഫോണും എസ എം എസും",
        "Reading": "Reading",
        "Science & Education": "ശാസ്ത്രവും വിദ്യാഭ്യാസവും",
        "Security": "സുരക്ഷാ സംബന്ധം",
        "Sports & Health": "കായികവും ആരോഗ്യവും",
        "System": "ഉപകരണ സംബന്ധം",
        "Theming": "ഭാവഭേദം",
        "Time": "സമയം",
        "Writing": "രചന",
        "show_all_packages": "എല്ലാ %d യും കാണുക"
    },
    "index": {
        "title": "എന്താണ് എഫ്-ഡ്രോയിഡ്?"
    },
    "permissions": {
        "permdesc_acceptHandovers": "മറ്റൊരു ആപ്പിൽ ആരംഭിച്ച കോൾ തുടരാൻ ആപ്പിനെ അനുവദിക്കുന്നു.",
        "permdesc_accessBackgroundLocation": "ഏകദേശം അല്ലെങ്കിൽ കൃത്യമായ ലൊക്കേഷൻ ആക്‌സസിന് ഇത് അധികമായി അനുവദിച്ചതാണെങ്കിൽ, പശ്ചാത്തലത്തിൽ റൺ ചെയ്യുമ്പോഴും ആപ്പിന് ലൊക്കേഷൻ ആക്‌സസ് ചെയ്യാനാവും.",
        "permdesc_accessCoarseLocation": "സെൽ ടവറുകളും വൈഫൈ നെറ്റ്‌വർക്കുകളും പോലുള്ള നെറ്റ്‌വർക്ക് ഉറവിടങ്ങൾ അടിസ്ഥാനമാക്കി, ഈ ആപ്പിന് നിങ്ങളുടെ ലൊക്കേഷൻ നേടാൻ‌ കഴിയും. എന്നാൽ, ഫോർഗ്രൗണ്ടിൽ ഉള്ളപ്പോൾ മാത്രമേ ആപ്പിന് ഇതിന് കഴിയൂ. ആപ്പിന് ഉപയോഗിക്കാനായി, ഈ ലൊക്കേഷൻ സേവനങ്ങൾ ഓണായിരിക്കുകയും നിങ്ങളുടെ ഫോണിൽ ലഭ്യമാവുകയും വേണം.",
        "permdesc_accessDrmCertificates": "പ്രൊവിഷൻ ചെയ്യുന്നതിനും DRM സർട്ടിഫിക്കറ്റുകൾ ഉപയോഗിക്കുന്നതിനും അപ്ലിക്കേഷനെ അനുവദിക്കുന്നു. സാധാരണ അപ്ലിക്കേഷനുകൾക്ക് ഒരിക്കലും ആവശ്യമില്ല.",
        "permdesc_accessFineLocation": "ഫോർഗ്രൗണ്ടിൽ ഉള്ളപ്പോൾ മാത്രമേ ഈ ആപ്പിന് നിങ്ങളുടെ കൃത്യമായ ലൊക്കേഷൻ നേടാനാവൂ. ആപ്പിന് ഉപയോഗിക്കാനായി, ഈ ലൊക്കേഷൻ സേവനങ്ങൾ ഓണായിരിക്കുകയും നിങ്ങളുടെ ഫോണിൽ ലഭ്യമാവുകയും വേണം. ഇതിലൂടെ ബാറ്ററി ഉപഭോഗം വർദ്ധിച്ചേക്കാം.",
        "permdesc_accessImsCallService": "നിങ്ങളുടെ ഇടപെടൽ ഇല്ലാതെ കോളുകൾ ചെയ്യാൻ IMS സേവനം ഉപയോഗിക്കുന്നതിന് ആപ്പിനെ അനുവദിക്കുന്നു.",
        "permdesc_accessLocationExtraCommands": "ലൊക്കേഷൻ ദാതാവിന്റെ അധിക കമാൻഡുകൾ ആക്‌സസ്സുചെയ്യാൻ അപ്ലിക്കേഷനെ അനുവദിക്കുന്നു. ഇത് GPS-ന്റെയോ മറ്റ് ലൊക്കേഷൻ ഉറവിടങ്ങളുടെയോ പ്രവർത്തനത്തിൽ ഇടപെടാൻ അപ്ലിക്കേഷനെ അനുവദിക്കാനിടയുണ്ട്.",
        "permdesc_accessNetworkConditions": "നെറ്റ്‌വർക്ക് അവസ്ഥകളിൽ നിരീക്ഷണങ്ങൾ ശ്രവിക്കാൻ ഒരു അപ്ലിക്കേഷനെ അനുവദിക്കുന്നു. സാധാരണ അപ്ലിക്കേഷനുകൾക്ക് ഒരിക്കലും ആവശ്യമില്ല.",
        "permdesc_accessNetworkState": "ഏതെല്ലാം നെറ്റ്‌വർക്കുകൾ നിലവിലുണ്ടെന്നതും കണക്റ്റുചെയ്‌തിട്ടുണ്ടെന്നതും പോലുള്ള നെറ്റ്‌വർക്ക് കണക്ഷനുകളെക്കുറിച്ചുള്ള വിവരം കാണാൻ അപ്ലിക്കേഷനെ അനുവദിക്കുന്നു.",
        "permdesc_accessNotifications": "മറ്റ് അപ്ലിക്കേഷനുകൾ പോസ്റ്റുചെയ്‌തവയുൾപ്പെടെയുള്ള, അറിയിപ്പുകൾ വീണ്ടെടുക്കാനും പരിശോധിക്കാനും മായ്‌ക്കാനും അപ്ലിക്കേഷനുകളെ അനുവദിക്കുന്നു.",
        "permdesc_accessWifiState": "വൈഫൈ പ്രവർത്തനക്ഷമമാണോ എന്നതും കണക്റ്റുചെയ്‌തിരിക്കുന്ന വൈഫൈ ഉപകരണങ്ങളുടെ പേരും പോലുള്ള, വൈഫൈ നെറ്റ്‌വർക്കിംഗിനെക്കുറിച്ചുള്ള വിവരം കാണാൻ അപ്ലിക്കേഷനെ അനുവദിക്കുന്നു.",
        "permdesc_accessWimaxState": "WiMAX പ്രവർത്തനക്ഷമമാണോയെന്നതും കണക്റ്റുചെയ്‌തിരിക്കുന്ന ഏതെങ്കിലും WiMAX നെറ്റ്‌വർക്കുകളെക്കുറിച്ചുള്ള വിവരങ്ങളും നിർണ്ണയിക്കാൻ അപ്ലിക്കേഷനെ അനുവദിക്കുന്നു.",
        "permdesc_access_notification_policy": "'ശല്യപ്പെടുത്തരുത്' കോൺഫിഗറേഷൻ വായിക്കുന്നതിനും എഴുതുന്നതിനും ആപ്പിനെ അനുവദിക്കുന്നു.",
        "permdesc_activityRecognition": "നിങ്ങളുടെ ശാരീരിക പ്രവർത്തനം ഈ ആപ്പിന് തിരിച്ചറിയാനാവും.",
        "permdesc_addVoicemail": "നിങ്ങളുടെ വോയ്‌സ്മെയിൽ ഇൻബോക്‌സിലേക്ക് സന്ദേശങ്ങൾ ചേർക്കാൻ അപ്ലിക്കേഷനെ അനുവദിക്കുന്നു.",
        "permdesc_answerPhoneCalls": "ഇൻകമിംഗ് ഫോൺ കോളിന് മറുപടി നൽകാൻ ആപ്പിനെ അനുവദിക്കുന്നു.",
        "permdesc_audioWrite": "നിങ്ങളുടെ സംഗീത ശേഖരം പരിഷ്‌ക്കരിക്കുന്നതിന് ആപ്പിനെ അനുവദിക്കുന്നു.",
        "permdesc_bindCarrierMessagingService": "ഒരു കാരിയർ സന്ദേശമയയ്‌ക്കൽ സേവനത്തിന്റെ ഉയർന്ന നിലയിലുള്ള ഇന്റർഫേസിലേക്ക് ബന്ധിപ്പിക്കാൻ ദാതാവിനെ അനുവദിക്കുന്നു. സാധാരണ അപ്ലിക്കേഷനുകൾക്ക് ഒരിക്കലും ആവശ്യമില്ല.",
        "permdesc_bindCarrierServices": "കാരിയർ സേവനങ്ങളെ ബന്ധിപ്പിക്കാൻ ഉടമയെ അനുവദിക്കുന്നു. സാധാരണ ആപ്പ്‌സിന് ഒരിക്കലും ആവശ്യമില്ല.",
        "permdesc_bindConditionProviderService": "ഒരു കണ്ടീഷൻ പ്രൊവൈഡർ സേവനത്തിന്റെ ഉയർന്ന നിലയിലുള്ള ഇന്റർഫേസിലേക്ക് ബന്ധിപ്പിക്കാൻ ഹോൾഡറിനെ അനുവദിക്കുന്നു. സാധാരണ അപ്ലിക്കേഷനുകൾക്ക് ഒരിക്കലും ആവശ്യമില്ല.",
        "permdesc_bindDreamService": "സ്വപ്‌നതുല്യമായ ഒരു സേവനത്തിന്റെ ഉയർന്ന നിലയിലുള്ള ഇന്റർഫേസിലേക്ക് ബന്ധിപ്പിക്കാൻ ദാതാവിനെ അനുവദിക്കുന്നു. സാധാരണ അപ്ലിക്കേഷനുകൾക്ക് ഒരിക്കലും ആവശ്യമില്ല.",
        "permdesc_bindNotificationListenerService": "ഒരു അറിയിപ്പ് ലിസണർ സേവനത്തിന്റെ ഉയർന്ന നിലയിലുള്ള ഇന്റർഫേസിലേക്ക് ബന്ധിപ്പിക്കാൻ ഹോൾഡറിനെ അനുവദിക്കുന്നു. സാധാരണ അപ്ലിക്കേഷനുകൾക്ക് ഒരിക്കലും ആവശ്യമില്ല.",
        "permdesc_bind_connection_service": "കോളുകൾ ചെയ്യുന്നതിനോ/സ്വീകരിക്കുന്നതിനോ ടെലിഫോണി സേവനങ്ങൾ ഉപയോഗിച്ച് സംവദിക്കാൻ അപ്ലിക്കേഷനെ അനുവദിക്കുന്നു.",
        "permdesc_bind_incall_service": "ഉപയോക്താവ് ഇൻ-കോൾ സ്‌ക്രീൻ എപ്പോൾ, എങ്ങനെ കാണുന്നുവെന്നത് നിയന്ത്രിക്കാൻ അപ്ലിക്കേഷനെ അനുവദിക്കുന്നു.",
        "permdesc_bluetooth": "ഫോണിലെ ബ്ലൂടൂത്ത് കോൺഫിഗറേഷൻ കാണാനും ജോടിയാക്കിയ ഉപകരണങ്ങളുമായി കണക്ഷനുകൾ നടത്തി അംഗീകരിക്കാനും അപ്ലിക്കേഷനെ അനുവദിക്കുന്നു.",
        "permdesc_bluetoothAdmin": "ഒരു പ്രാദേശിക ബ്ലൂടൂത്ത് ഫോണിനെ കോൺഫിഗർചെയ്യുന്നതിനും വിദൂര ഉപകരണങ്ങളെ കണ്ടെത്തി ജോടിയാക്കുന്നതിനും അപ്ലിക്കേഷനെ അനുവദിക്കുന്നു.",
        "permdesc_bodySensors": "നിങ്ങളുടെ ഹൃദയമിടിപ്പ് പോലുള്ള ശാരീരികാവസ്ഥ നിരീക്ഷിക്കാൻ സെൻസറുകളിൽ നിന്ന് വിവരം ആക്‌സസ്സുചെയ്യാൻ അപ്ലിക്കേഷനെ അനുവദിക്കുന്നു.",
        "permdesc_broadcastSticky": "സ്റ്റിക്കി പ്രക്ഷേപണങ്ങൾ അയയ്‌ക്കാൻ അപ്ലിക്കേഷനെ അനുവദിക്കുന്നു, പ്രക്ഷേപണം അവസാനിച്ചതിനുശേഷവും അത് നിലനിൽക്കുന്നു. അമിതോപയോഗം വളരെയധികം മെമ്മറി ഉപയോഗിക്കുന്നതിനാൽ, അത് ഫോണിന്റെ പ്രവർത്തനത്തെ മന്ദഗതിയിലാക്കുകയോ അസ്ഥിരമാക്കുകയോ ചെയ്യാം.",
        "permdesc_callCompanionApp": "ഉപകരണത്തിൽ നിലവിലുള്ള കോളുകൾ കാണാനും നിയന്തിക്കാനും ആപ്പിനെ അനുവദിക്കുന്നു. കോളുകൾക്കുള്ള നമ്പറുകളും അവയുടെ നിലയും പോലെയുള്ള വിവരങ്ങൾ ഇതിൽ ഉൾപ്പെടുന്നു.",
        "permdesc_callPhone": "നിങ്ങളുടെ ഇടപെടൽ ഇല്ലാതെ ഫോൺ നമ്പറുകളിലേക്ക് കോൾ ചെയ്യാൻ അപ്ലിക്കേഷനെ അനുവദിക്കുന്നു. ഇത് അപ്രതീക്ഷിത നിരക്കുകൾക്കോ കോളുകൾക്കോ ഇടയാക്കാം. ഇത് അടിയന്തര നമ്പറുകളിലേക്ക് വിളിക്കാൻ അപ്ലിക്കേഷനെ അനുവദിക്കില്ലെന്ന കാര്യം ശ്രദ്ധിക്കുക. ക്ഷുദ്രകരമായ അപ്ലിക്കേഷനുകൾ നിങ്ങളുടെ സ്ഥിരീകരണമില്ലാതെ കോളുകൾ ചെയ്യുന്നത് പണച്ചെലവിനിടയാക്കാം.",
        "permdesc_camera": "ഏതുസമയത്തും ക്യാമറ ഉപയോഗിച്ചുകൊണ്ട് ചിത്രങ്ങൾ എടുക്കാനും വീഡിയോകൾ റെക്കോർഡുചെയ്യാനും ഈ ആപ്പിന് കഴിയും.",
        "permdesc_changeNetworkState": "നെറ്റ്‌വർക്ക് കണക്‌റ്റി‌വിറ്റിയുടെ നില മാറ്റുന്നതിന് അപ്ലിക്കേഷനെ അനുവദിക്കുന്നു.",
        "permdesc_changeTetherState": "ടെതർചെയ്‌ത നെറ്റ്‌വർക്ക് കണക്‌റ്റിവിറ്റിയുടെ നിലമാറ്റുന്നതിന് അപ്ലിക്കേഷനെ അനുവദിക്കുന്നു.",
        "permdesc_changeWifiMulticastState": "മൾട്ടികാസ്‌റ്റ് വിലാസങ്ങൾ ഉപയോഗിച്ച് നിങ്ങളുടെ ഫോണിലേക്ക് മാത്രമല്ലാതെ, ഒരു വൈഫൈ നെറ്റ്‌വർക്കിലെ എല്ലാ ഉപകരണങ്ങളിലേക്കും അയച്ച പായ്‌ക്കറ്റുകൾ നേടാൻ അപ്ലിക്കേഷനെ അനുവദിക്കുന്നു. ഇത് മൾട്ടികാസ്റ്റ് ഇതര മോഡിനേക്കാൾ അധികം പവർ ഉപയോഗിക്കുന്നു.",
        "permdesc_changeWifiState": "വൈഫൈ ആക്‌സസ്സ് പോയിന്റുകളിലേക്ക് കണക്റ്റുചെയ്യാനും അതിൽ നിന്ന് വിച്ഛേദിക്കാനും വൈഫൈ നെറ്റ്‌വർക്കുകൾക്കായി ഉപകരണ കോൺഫിഗറേഷൻ മാറ്റാനും അപ്ലിക്കേഷനെ അനുവദിക്കുന്നു.",
        "permdesc_changeWimaxState": "WiMAX നെറ്റ്‌വർക്കുകളിലേക്ക് ഫോൺ കണക്റ്റുചെയ്യാനും അതിൽ നിന്ന് വിച്ഛേദിക്കാനും അപ്ലിക്കേഷനെ അനുവദിക്കുന്നു.",
        "permdesc_connection_manager": "ടെലികോം കണക്ഷനുകൾ നിയന്ത്രിക്കാൻ അപ്ലിക്കേഷനെ അനുവദിക്കുന്നു.",
        "permdesc_control_incall_experience": "ഇൻ- കോൾ ഉപയോക്തൃ അനുഭവം നൽകുന്നതിന് അപ്ലിക്കേഷനെ അനുവദിക്കുന്നു.",
        "permdesc_createNetworkSockets": "നെറ്റ്‌വർക്ക് സോക്കറ്റുകൾ സൃഷ്‌ടിക്കാനും ഇഷ്‌ടാനുസൃത നെറ്റ്‌വർക്ക് പ്രോട്ടോക്കോളുകൾ ഉപയോഗിക്കാനും അപ്ലിക്കേഷനെ അനുവദിക്കുന്നു. ഇന്റർനെറ്റിലേക്ക് ഡാറ്റ അയയ്‌ക്കുന്നതിനായി ബ്രൗസറും മറ്റ് അപ്ലിക്കേഷനുകളും ഉള്ളതിനാൽ, ഇന്റർനെറ്റിലേക്ക് ഡാറ്റ അയയ്‌ക്കാൻ ഈ അനുമതി ആവശ്യമില്ല.",
        "permdesc_disableKeyguard": "കീലോക്കും ഏതെങ്കിലും അനുബന്ധ പാസ്‌വേഡ് സുരക്ഷയും പ്രവർത്തനരഹിതമാക്കാൻ അപ്ലിക്കേഷനെ അനുവദിക്കുന്നു. ഉദാഹരണത്തിന്, ഒരു ഇൻകമിംഗ് കോൾ സ്വീകരിക്കുമ്പോൾ ഫോൺ കീലോക്ക് പ്രവർത്തനരഹിതമാക്കുന്നു, കോൾ അവസാനിക്കുമ്പോൾ കീലോക്ക് വീണ്ടും പ്രവർത്തനക്ഷമമാകുന്നു.",
        "permdesc_enableCarMode": "കാർ മോഡ് പ്രവർത്തനക്ഷമമാക്കുന്നതിന് അപ്ലിക്കേഷനെ അനുവദിക്കുന്നു.",
        "permdesc_expandStatusBar": "നില ബാർ വിപുലീകരിക്കുന്നതിനോ ചുരുക്കുന്നതിനോ അപ്ലിക്കേഷനെ അനുവദിക്കുന്നു.",
        "permdesc_foregroundService": "മുൻവശത്തുള്ള സേവനങ്ങൾ ഉപയോഗിക്കാൻ ആപ്പിനെ അനുവദിക്കുന്നു.",
        "permdesc_getAccounts": "ഫോൺ തിരിച്ചറിയുന്ന അക്കൗണ്ടുകളുടെ ലിസ്റ്റ് നേടാൻ അപ്ലിക്കേഷനെ അനുവദിക്കുന്നു. ഇതിൽ നിങ്ങൾ ഇൻസ്റ്റാളുചെയ്‌ത അപ്ലിക്കേഷനുകൾ സൃഷ്‌ടിച്ച എല്ലാ അക്കൗണ്ടുകളും ഉൾപ്പെടാം.",
        "permdesc_getPackageSize": "അപ്ലിക്കേഷന്റെ കോഡ്, ഡാറ്റ, കാഷെ വലുപ്പങ്ങൾ എന്നിവ വീണ്ടെടുക്കുന്നതിന് അതിനെ അനുവദിക്കുക",
        "permdesc_getTasks": "നിലവിലും സമീപകാലത്തും പ്രവർത്തിക്കുന്ന ടാസ്‌ക്കുകളെക്കുറിച്ചുള്ള വവിവരങ്ങൾ വീണ്ടെടുക്കാൻ അപ്ലിക്കേഷനെ അനുവദിക്കുന്നു. ഇത് ഉപകരണത്തിൽ ഉപയോഗിച്ച അപ്ലിക്കേഷനുകളെക്കുറിച്ചുള്ള വിവരം കണ്ടെത്താൻ അപ്ലിക്കേഷനെ അനുവദിക്കാനിടയുണ്ട്.",
        "permdesc_handoverStatus": "നിലവിലെ Android ബീം കൈമാറ്റങ്ങളെക്കുറിച്ച് വിവരങ്ങൾ നേടാൻ ഈ അപ്ലിക്കേഷനെ അനുവദിക്കുന്നു",
        "permdesc_imagesWrite": "നിങ്ങളുടെ ഫോട്ടോ ശേഖരം പരിഷ്‌ക്കരിക്കുന്നതിന് ആപ്പിനെ അനുവദിക്കുന്നു.",
        "permdesc_install_shortcut": "ഉപയോക്തൃ ഇടപെടലില്ലാതെ ഹോംസ്‌ക്രീൻ കുറുക്കുവഴികൾ ചേർക്കാൻ ഒരു അപ്ലിക്കേഷനെ അനുവദിക്കുന്നു.",
        "permdesc_invokeCarrierSetup": "കാരിയർ നൽകിയ കോൺഫിഗറേഷൻ അപ്ലിക്കേഷൻ റദ്ദാക്കാൻ ഹോൾഡറിനെ അനുവദിക്കുന്നു. സാധാരണ അപ്ലിക്കേഷനുകൾക്ക് ഒരിക്കലും ആവശ്യമില്ല.",
        "permdesc_killBackgroundProcesses": "മറ്റ് അപ്ലിക്കേഷനുകളുടെ പശ്ചാത്തല പ്രോസസ്സുകൾ അവസാനിപ്പിക്കാൻ അപ്ലിക്കേഷനെ അനുവദിക്കുന്നു. ഇത് മറ്റ് അപ്ലിക്കേഷനുകൾ പ്രവർത്തനം നിർത്താനിടയാക്കാം.",
        "permdesc_manageFace": "ഉപയോഗിക്കാനായി, മുഖത്തിന്റെ ടെംപ്ലേറ്റുകൾ ചേർക്കാനും ഇല്ലാതാക്കാനുമുള്ള രീതികൾ അഭ്യർത്ഥിക്കാൻ ആപ്പിനെ അനുവദിക്കുന്നു.",
        "permdesc_manageFingerprint": "ഉപയോഗിക്കാനായി വിരലടയാള ടെംപ്ലേറ്റുകൾ ചേർക്കാനും ഇല്ലാതാക്കാനുമുള്ള രീതികൾ അഭ്യർത്ഥിക്കാൻ അപ്ലിക്കേഷനെ അനുവദിക്കുന്നു.",
        "permdesc_manageNetworkPolicy": "നെറ്റ്‌വർക്ക് നയങ്ങൾ നിയന്ത്രിക്കുന്നതിനും നിർദ്ദിഷ്‌ട അപ്ലിക്കേഷൻ നിയമങ്ങൾ നിർവ്വചിക്കുന്നതിനും അപ്ലിക്കേഷനെ അനുവദിക്കുന്നു.",
        "permdesc_manageOwnCalls": "കോളിംഗ് അനുഭവം ‌മെച്ചപ്പെടുത്തുന്നതിനായി തങ്ങളുടെ ‌കോളുകൾ സിസ്റ്റത്തിലേയ്ക്ക് വഴിതിരിച്ചുവിടാൻ ആപ്പുകളെ അനുവദിക്കുന്നു.",
        "permdesc_manageProfileAndDeviceOwners": "പ്രൊഫൈൽ ഉടമകളെയും ഉപകരണ ഉടമയെയും സജ്ജമാക്കാൻ അപ്ലിക്കേഷനുകളെ അനുവദിക്കുന്നു.",
        "permdesc_mediaLocation": "നിങ്ങളുടെ മീഡിയ ശേഖരത്തിൽ നിന്നും ലൊക്കേഷനുകൾ റീഡ് ചെയ്യുന്നതിന് ആപ്പിനെ അനുവദിക്കുന്നു.",
        "permdesc_modifyAudioSettings": "വോളിയവും ഔട്ട്പുട്ടിനായി ഉപയോഗിച്ച സ്‌പീക്കറും പോലുള്ള ആഗോള ഓഡിയോ ക്രമീകരണങ്ങൾ പരിഷ്‌ക്കരിക്കാൻ അപ്ലിക്കേഷനെ അനുവദിക്കുന്നു.",
        "permdesc_modifyNetworkAccounting": "നെറ്റ്‌വർക്ക് ഉപയോഗം അപ്ലിക്കേഷനുകളിൽ കണക്കാക്കുന്നതെങ്ങനെയെന്ന് പരിഷ്‌ക്കരിക്കാൻ അപ്ലിക്കേഷനെ അനുവദിക്കുന്നു. സാധാരണ അപ്ലിക്കേഷനുകളുടെ ഉപയോഗത്തിനുള്ളതല്ല.",
        "permdesc_nfc": "നിയർ ഫീൽഡ് കമ്മ്യൂണിക്കേഷൻ (NFC) ടാഗുകളുമായും കാർഡുകളുമായും റീഡറുകളുമായുള്ള ആശയവിനിമയത്തിന് അപ്ലിക്കേഷനുകളെ അനുവദിക്കുന്നു.",
        "permdesc_persistentActivity": "മെമ്മറിയിൽ അപ്ലിക്കേഷനുകളുടെ ഭാഗങ്ങൾ നിലനിർത്താൻ സ്വയം അനുവദിക്കുന്നു. ഇത് ഫോണിനെ മന്ദഗതിയിലാക്കുന്ന വിധത്തിൽ മറ്റ് അപ്ലിക്കേഷനുകൾക്ക് ലഭ്യമായ മെമ്മറി പരിമിതപ്പെടുത്താനിടയുണ്ട്.",
        "permdesc_processOutgoingCalls": "മറ്റ് നമ്പരിലേക്ക് കോൾ റീഡയറക്‌ടുചെയ്യുന്നതിനോ എല്ലാ കോളുകളും ഒപ്പം ഇല്ലാതാക്കുന്നതിനോ ഉള്ള ആയ ഓപ്‌ഷൻ ഉപയോഗിക്കുന്ന ഔട്ട്ഗോയിംഗ് കോളിൽ ഡയൽ ചെയ്യുന്ന നമ്പർ കാണുന്നതിന് അപ്ലിക്കേഷനെ അനുവദിക്കുന്നു.",
        "permdesc_readCalendar": "ഈ ആപ്പിന് നിങ്ങളുടെ ഫോണിൽ സംഭരിച്ചിരിക്കുന്ന എല്ലാ കലണ്ടർ ഇവന്റുകളും വായിക്കാനും നിങ്ങളുടെ കലണ്ടർ വിവരങ്ങൾ പങ്കിടാനും അല്ലെങ്കിൽ സംരക്ഷിക്കാനും കഴിയും.",
        "permdesc_readCallLog": "ഈ ആപ്പിന് നിങ്ങളുടെ കോൾ ചരിത്രം വായിക്കാൻ കഴിയും.",
        "permdesc_readCellBroadcasts": "നിങ്ങളുടെ ഉപകരണത്തിൽ ലഭിച്ച സെൽ പ്രക്ഷേപണ സന്ദേശങ്ങൾ റീഡുചെയ്യാൻ അപ്ലിക്കേഷനെ അനുവദിക്കുന്നു. അടിയന്തര സാഹചര്യങ്ങളെക്കുറിച്ച് നിങ്ങൾക്ക് മുന്നറിയിപ്പ് നൽകാനായി ചില ലൊക്കേഷനുകളിൽ നൽകപ്പെടുന്നവയാണ് സെൽ പ്രക്ഷേപണ അലേർട്ടുകൾ. ഒരു അടിയന്തര സെൽ പ്രക്ഷേപണം ലഭിക്കുമ്പോൾ, ക്ഷുദ്രകരമായ അപ്ലിക്കേഷനുകൾ നിങ്ങളുടെ ഉപകരണത്തിന്റെ പ്രകടനമോ പ്രവർത്തനമോ തടസ്സപ്പെടുത്താനിടയുണ്ട്.",
        "permdesc_readContacts": "നിശ്ചിത ആളുകളെ മറ്റ് മാർഗങ്ങളിൽ നിങ്ങൾ എത്ര തവണ വിളിച്ചിട്ടുണ്ടെന്നതോ അവർക്ക് ഇമെയിൽ ചെയ്‌തിട്ടുണ്ടെന്നതോ ആശയവിനിമയം നടത്തിയിട്ടുണ്ടെന്നതോ ഉൾപ്പെടെ, നിങ്ങളുടെ ഫോണിൽ സംഭരിച്ചിരിക്കുന്ന നിങ്ങളുടെ കോൺടാക്റ്റുകളെക്കുറിച്ചുള്ള ഡാറ്റ റീഡുചെയ്യാൻ അപ്ലിക്കേഷനെ അനുവദിക്കുന്നു. നിങ്ങളുടെ കോൺടാക്റ്റ് ഡാറ്റ സംരക്ഷിക്കാൻ ഈ അനുമതി അപ്ലിക്കേഷനുകളെ അനുവദിക്കുന്നു, ക്ഷുദ്രകരമായ അപ്ലിക്കേഷനുകൾ നിങ്ങളുടെ അറിവില്ലാതെ കോൺടാക്റ്റ് ഡാറ്റ പങ്കിടാനിടയുണ്ട്.",
        "permdesc_readHistoryBookmarks": "ബ്രൗസർ സന്ദർശിച്ച എല്ലാ URL-കളുടെയും ചരിത്രവും ബ്രൗസറിന്റെ എല്ലാ ബുക്ക്‌മാർക്കുകളും റീഡുചെയ്യാൻ അപ്ലിക്കേഷനെ അനുവദിക്കുന്നു. ശ്രദ്ധിക്കുക: ഈ അനുമതി മൂന്നാം കക്ഷി ബ്രൗസറുകളോ വെബ് ബ്രൗസിംഗ് കഴിവുകളുള്ള മറ്റ് അപ്ലിക്കേഷനുകളോ നടപ്പിലാക്കാനിടയില്ല.",
        "permdesc_readInstallSessions": "ഇൻസ്റ്റാൾ ചെയ്‌ത സെഷനുകൾ റീഡുചെയ്യുന്നതിന് ഒരു അപ്ലിക്കേഷനെ അനുവദിക്കുന്നു. സജീവ പാക്കേജ് ഇൻസ്റ്റാളേഷനുകളെക്കുറിച്ചുള്ള വിശദാംശങ്ങൾ കാണുന്നതിന് ഇത് അനുവദിക്കുന്നു.",
        "permdesc_readNetworkUsageHistory": "നിർദ്ദി‌ഷ്‌ട നെറ്റ്‌വർക്കുകൾക്കും അപ്ലിക്കേഷനുകൾക്കുമുള്ള ചരിത്രപരമായ നെറ്റ്‌വർക്ക് ഉപയോഗം റീഡുചെയ്യുന്നതിന് അപ്ലിക്കേഷനെ അനുവദിക്കുന്നു.",
        "permdesc_readPhoneNumbers": "ഉപകരണത്തിന്റെ ഫോൺ നമ്പറുകൾ ആക്‌സസ് ചെയ്യാൻ ആപ്പിനെ അനുവദിക്കുന്നു.",
        "permdesc_readPhoneState": "ഉപകരണത്തിന്റെ ഫോൺ സവിശേഷതകൾ ആക്‌സസ്സുചെയ്യാൻ അപ്ലിക്കേഷനെ അനുവദിക്കുന്നു. ഈ അനുമതി ഫോൺ നമ്പർ, ഉപകരണ ഐഡികൾ, ഒരു കോൾ സജീവമാണോയെന്നത്, ഒരു കോൾ കണക്റ്റുചെയ്‌ത വിദൂര നമ്പർ എന്നിവ നിർണ്ണയിക്കാൻ അപ്ലിക്കേഷനെ അനുവദിക്കുന്നു.",
        "permdesc_readSms": "ഈ ആപ്പിന് നിങ്ങളുടെ ഫോണിൽ സംഭരിച്ചിരിക്കുന്ന എല്ലാ SMS (വാചക) സന്ദേശങ്ങളും വായിക്കാൻ കഴിയും.",
        "permdesc_readSyncSettings": "ഒരു അക്കൗണ്ടിനായി സമന്വയ ക്രമീകരണങ്ങൾ റീഡുചെയ്യാൻ അപ്ലിക്കേഷനെ അനുവദിക്കുന്നു. ഉദാഹരണത്തിന്, ആളുകൾ അപ്ലിക്കേഷൻ ഒരു അക്കൗണ്ടിൽ സമന്വയിപ്പിച്ചിട്ടുണ്ടോയെന്നത് നിർണ്ണയിക്കാൻ ഇതിനാകും.",
        "permdesc_readSyncStats": "സമന്വയ ഇവന്റുകളുടെ ചരിത്രവും ഡാറ്റ എത്രത്തോളം സമന്വയിപ്പിച്ചുവെന്നതും ഉൾപ്പെടെ, ഒരു അക്കൗണ്ടിനായി സമന്വയ സ്ഥിതിവിവരക്കണക്കുകൾ റീഡുചെയ്യാൻ അപ്ലിക്കേഷനെ അനുവദിക്കുന്നു.",
        "permdesc_receiveBootCompleted": "സിസ്‌റ്റം ബൂട്ടുചെയ്യുന്നത് പൂർത്തിയാകുമ്പോൾ തന്നെ സ്വയം ആരംഭിക്കുന്നതിന് അപ്ലിക്കേഷനെ അനുവദിക്കുന്നു. ഇത് ഫോൺ ആരംഭിക്കുന്നതിന് കൂടുതൽ ദൈർഘ്യമെടുക്കാം ഒപ്പം പ്രവർത്തിക്കുമ്പോഴെല്ലാം മൊത്തം ഫോണിന്റെ മൊത്തത്തിലുള്ള വേഗത കുറയ്ക്കുന്നതിന് അപ്ലിക്കേഷനെ അനുവദിക്കും.",
        "permdesc_receiveMms": "MMS സന്ദേശങ്ങൾ നേടാനും പ്രോസസ്സുചെയ്യാനും അപ്ലിക്കേഷനെ അനുവദിക്കുന്നു. നിങ്ങളുടെ ഉപകരണത്തിലേക്ക് അയയ്‌ക്കുന്ന സന്ദേശങ്ങൾ നിങ്ങൾക്ക് ദൃശ്യമാക്കാതെ തന്നെ അപ്ലിക്കേഷന് നിരീക്ഷിക്കാനോ ഇല്ലാതാക്കാനോ കഴിയുമെന്നാണ് ഇതിനർത്ഥം.",
        "permdesc_receiveSms": "SMS സന്ദേശങ്ങൾ നേടാനും പ്രോസസ്സുചെയ്യാനും അപ്ലിക്കേഷനെ അനുവദിക്കുന്നു. നിങ്ങളുടെ ഉപകരണത്തിലേക്ക് അയയ്‌ക്കുന്ന സന്ദേശങ്ങൾ നിങ്ങൾക്ക് ദൃശ്യമാക്കാതെ തന്നെ അപ്ലിക്കേഷന് നിരീക്ഷിക്കാനോ ഇല്ലാതാക്കാനോ കഴിയുമെന്നാണ് ഇതിനർത്ഥം.",
        "permdesc_receiveWapPush": "WAP സന്ദേശങ്ങൾ നേടാനും പ്രോസസ്സുചെയ്യാനും അപ്ലിക്കേഷനെ അനുവദിക്കുന്നു. നിങ്ങൾക്ക് അയയ്‌ക്കുന്ന സന്ദേശങ്ങൾ നിങ്ങൾക്ക് ദൃശ്യമാക്കാതെ തന്നെ നിരീക്ഷിക്കാനോ ഇല്ലാതാക്കാനോ ഉള്ള കഴിവ് ഈ അനുമതികളിൽ ഉൾപ്പെടുന്നു.",
        "permdesc_recordAudio": "ഈ ആപ്പിന് ഏത് സമയത്തും മൈക്രോഫോൺ ഉപയോഗിച്ചുകൊണ്ട് ഓഡിയോ റെക്കോർഡുചെയ്യാൻ കഴിയും.",
        "permdesc_register_call_provider": "പുതിയ ടെലികോം കണക്ഷനുകൾ രജിസ്‌റ്റർ ചെയ്യാൻ അപ്ലിക്കേഷനെ അനുവദിക്കുന്നു.",
        "permdesc_register_sim_subscription": "പുതിയ ടെലികോം SIM കണക്ഷനുകൾ രജിസ്‌റ്റർ ചെയ്യാൻ അപ്ലിക്കേഷനെ അനുവദിക്കുന്നു.",
        "permdesc_removeDrmCertificates": "DRM സർട്ടിഫിക്കറ്റുകൾ നീക്കംചെയ്യുന്നതിന് അപ്ലിക്കേഷനെ അനുവദിക്കുന്നു. സാധാരണ അപ്ലിക്കേഷനുകൾക്ക് ഒരിക്കലും ആവശ്യമില്ല.",
        "permdesc_reorderTasks": "ടാസ്‌ക്കുകളെ മുന്നിലേക്കോ പശ്ചാത്തലത്തിലേക്കോ നീക്കാൻ അപ്ലിക്കേഷനെ അനുവദിക്കുന്നു. ഇത് അപ്ലിക്കേഷൻ നിങ്ങളുടെ ഇടപെടലില്ലാതെ ചെയ്യാനിടയുണ്ട്.",
        "permdesc_requestDeletePackages": "പാക്കേജുകളെ ഇല്ലാതാക്കാനുള്ള അഭ്യർത്ഥന നടത്താൻ ആപ്ലിക്കേഷനെ അനുവദിക്കുന്നു.",
        "permdesc_requestIgnoreBatteryOptimizations": "ആപ്പിന് വേണ്ടിയുള്ള ബാറ്ററി ഒപ്റ്റിമൈസേഷനുകളെ അവഗണിക്കാനുള്ള അനുമതി ചോദിക്കുന്നതിന് ആപ്പിനെ അനുവദിക്കുന്നു.",
        "permdesc_requestInstallPackages": "പാക്കേജുകളുടെ ഇൻസ്റ്റാളേഷൻ അഭ്യർത്ഥിക്കാൻ ഒരു അപ്ലിക്കേഷനെ അനുവദിക്കുന്നു.",
        "permdesc_requestPasswordComplexity": "സ്ക്രീൻ ലോക്കിന്റെ സാധ്യമായ നീളവും തരവും സൂചിപ്പിക്കുന്ന, അതിന്റെ സങ്കീർണ്ണത നില (ഉയർന്നത്, ഇടത്തരം, കുറഞ്ഞത് അല്ലെങ്കിൽ ഒന്നുമില്ല) മനസ്സിലാക്കാൻ ആപ്പിനെ അനുവദിക്കുന്നു. സ്‌ക്രീൻ ലോക്ക് ഒരു പ്രത്യേക തലത്തിലേക്ക് അപ്ഡേറ്റ് ചെയ്യാൻ ഉപയോക്താക്കളെ നിർദ്ദേശിക്കാനും ആപ്പിനാവും, പക്ഷെ ഉപയോക്താക്കൾക്ക് എളുപ്പത്തിൽ അവഗണിക്കാനും മറ്റൊന്നിലേക്ക് നാവിഗേറ്റ് ചെയ്യാനുമാവും. പ്ലെയിൻടെക്‌സ്‌റ്റിൽ സ്ക്രീൻ ലോക്ക് സംഭരിക്കപ്പെട്ടിട്ടില്ലെന്ന കാര്യം ശ്രദ്ധിക്കുക, അതിനാൽ ആപ്പിന് കൃത്യമായ പാസ്‌വേഡ് അറിയില്ല.",
        "permdesc_route_media_output": "മീഡിയ ഔട്ട്‌പുട്ടിനെ മറ്റ് ബാഹ്യ ഉപകരണങ്ങളിലേക്ക് റൂട്ടുചെയ്യാൻ ഒരു അപ്ലിക്കേഷനെ അനുവദിക്കുന്നു.",
        "permdesc_runInBackground": "ഈ ആപ്പിന് പശ്ചാത്തലത്തിൽ പ്രവർത്തിക്കാൻ കഴിയും. ഇത് ബാറ്ററി വേഗത്തിൽ കുറയാൻ കാരണമായേക്കാം.",
        "permdesc_sdcardRead": "നിങ്ങൾ പങ്കിടുന്ന സ്‌റ്റോറേജിലെ ഉള്ളടക്കങ്ങൾ വായിക്കാൻ ആപ്പിനെ അനുവദിക്കുന്നു.",
        "permdesc_sdcardWrite": "നിങ്ങൾ പങ്കിടുന്ന സ്‌റ്റോറേജിലെ ഉള്ളടക്കങ്ങൾ എഴുതാൻ ആപ്പിനെ അനുവദിക്കുന്നു.",
        "permdesc_sendSms": "SMS സന്ദേശങ്ങൾ അയയ്‌ക്കാൻ അപ്ലിക്കേഷനെ അനുവദിക്കുന്നു. ഇത് അപ്രതീക്ഷിത നിരക്കുകൾക്കിടയാക്കാം. ക്ഷുദ്രകരമായ അപ്ലിക്കേഷനുകൾ നിങ്ങളുടെ സ്ഥിരീകരണമില്ലാതെ സന്ദേശങ്ങൾ അയയ്‌ക്കുന്നത് പണച്ചെലവിനിടയാക്കാം.",
        "permdesc_setAlarm": "ഒരു ഇൻസ്റ്റാളുചെയ്‌ത അലാറം ക്ലോക്ക് അപ്ലിക്കേഷനിൽ അലാറം സജ്ജീകരിക്കുന്നതിന് അപ്ലിക്കേഷനെ അനുവദിക്കുന്നു. ചില അലാറം ക്ലോക്ക് അപ്ലിക്കേഷനുകൾ ഈ സവിശേഷത നടപ്പിലാക്കാതിരുന്നേക്കാം.",
        "permdesc_setInputCalibration": "ടച്ച് സ്‌ക്രീനിന്റെ കാലിബ്രേഷൻ പാരാമീറ്ററുകൾ പരിഷ്‌ക്കരിക്കുന്നതിന് അപ്ലിക്കേഷനെ അനുവദിക്കുന്നു. സാധാരണ അപ്ലിക്കേഷനുകൾക്ക് ഒരിക്കലും ആവശ്യമില്ല.",
        "permdesc_setTimeZone": "ഫോണിന്റെ സമയ മേഖലയെ മാറ്റുന്നതിന് അപ്ലിക്കേഷനെ അനുവദിക്കുന്നു.",
        "permdesc_setWallpaper": "സിസ്‌റ്റം വാൾപേപ്പറിനെ സജ്ജീകരിക്കുന്നതിന് അപ്ലിക്കേഷനെ അനുവദിക്കുന്നു.",
        "permdesc_setWallpaperHints": "സിസ്‌റ്റം വലുപ്പ സൂചനകളെ സജ്ജീകരിക്കുന്നതിന് അപ്ലിക്കേഷനെ അനുവദിക്കുന്നു.",
        "permdesc_sim_communication": "സിമ്മിലേക്ക് കമാൻഡുകൾ അയയ്‌ക്കാൻ അപ്ലിക്കേഷനെ അനുവദിക്കുന്നു. ഇത് വളരെ അപകടകരമാണ്.",
        "permdesc_startViewPermissionUsage": "ഒരു ആപ്പിനുള്ള അനുമതി ഉപയോഗം ആരംഭിക്കാൻ ഹോൾഡറിനെ അനുവദിക്കുന്നു. സാധാരണ ആപ്പുകൾക്ക് ഒരിക്കലും ആവശ്യമില്ല.",
        "permdesc_statusBar": "നില ബാർ പ്രവർത്തരഹിതമാക്കുന്നതിന് അല്ലെങ്കിൽ സിസ്‌റ്റം ഐക്കണുകൾ ചേർക്കുന്നതിനും നീക്കംചെയ്യുന്നതിനും അപ്ലിക്കേഷനെ അനുവദിക്കുന്നു.",
        "permdesc_statusBarService": "അപ്ലിക്കേഷനെ നില ബാർ ആകാൻ അനുവദിക്കുന്നു.",
        "permdesc_subscribedFeedsRead": "നിലവിൽ സമന്വയിപ്പിച്ച ഫീഡുകളെക്കുറിച്ചുള്ള വിശദാംശങ്ങൾ നേടുന്നതിന് അപ്ലിക്കേഷനെ അനുവദിക്കുന്നു.",
        "permdesc_systemAlertWindow": "മറ്റ് ആപ്‌സിന് മുകളിലോ സ്ക്രീനിന്റെ മറ്റ് ഭാഗങ്ങളിലോ ദൃശ്യമാകാൻ ഈ ആപ്പിന് കഴിയും. സാധാരണ ആപ്പ് ഉപയോഗത്തെ ഇത് തടസ്സപ്പെടുത്താം, മറ്റ് ആപ്‌സ് ദൃശ്യമാകുന്ന രീതിയെയും ഇത് മാറ്റാം.",
        "permdesc_transmitIr": "ഫോണിന്റെ ഇൻഫ്രാറെഡ് ട്രാൻസ്‌മിറ്റർ ഉപയോഗിക്കാൻ അപ്ലിക്കേഷനെ അനുവദിക്കുന്നു.",
        "permdesc_uninstall_shortcut": "ഉപയോക്തൃ ഇടപെടലില്ലാതെ ഹോംസ്‌ക്രീൻ കുറുക്കുവഴികൾ നീക്കംചെയ്യാൻ അപ്ലിക്കേഷനെ അനുവദിക്കുന്നു.",
        "permdesc_useBiometric": "പരിശോധിച്ചുറപ്പിക്കുന്നതിനായി, ബയോമെട്രിക് ഹാർഡ്‌വെയർ ഉപയോഗിക്കാൻ ആപ്പിനെ അനുവദിക്കുക",
        "permdesc_useDataInBackground": "ഈ ആപ്പിന് പശ്ചാത്തലത്തിൽ ഡാറ്റ ഉപയോഗിക്കാൻ കഴിയും. ഇത് ഡാറ്റ ഉപയോഗം വർദ്ധിപ്പിച്ചേക്കാം.",
        "permdesc_useFaceAuthentication": "പരിശോധിച്ചുറപ്പിക്കലിനായി മുഖം തിരിച്ചറിയൽ ഹാർഡ്‌വെയർ ഉപയോഗിക്കാൻ ആപ്പിനെ അനുവദിക്കുന്നു",
        "permdesc_useFingerprint": "പ്രാമാണീകരണത്തിനായി വിരലടയാളം ഉപയോഗിക്കാൻ അപ്ലിക്കേഷനെ അനുവദിക്കുന്നു",
        "permdesc_use_sip": "SIP കോളുകൾ വിളിക്കാനും സ്വീകരിക്കാനും അപ്ലിക്കേഷനെ അനുവദിക്കുന്നു.",
        "permdesc_vibrate": "വൈബ്രേറ്റർ നിയന്ത്രിക്കുന്നതിന് അപ്ലിക്കേഷനെ അനുവദിക്കുന്നു.",
        "permdesc_videoWrite": "നിങ്ങളുടെ വീഡിയോ ശേഖരം പരിഷ്‌ക്കരിക്കുന്നതിന് ആപ്പിനെ അനുവദിക്കുന്നു.",
        "permdesc_wakeLock": "ഫോൺ സുഷുപ്തിയിലാകുന്നതിൽ നിന്നും തടയുന്നതിന് അപ്ലിക്കേഷനെ അനുവദിക്കുന്നു.",
        "permdesc_writeCalendar": "ഈ ആപ്പിന്, നിങ്ങളുടെ ഫോണിൽ കലണ്ടർ ഇവന്റുകൾ ചേർക്കാനോ നീക്കംചെയ്യാനോ മാറ്റാനോ കഴിയും. കലണ്ടർ ഉടമകളിൽ നിന്നാണ് വരുന്നതെന്ന് തോന്നിപ്പിക്കാവുന്ന സന്ദേശങ്ങൾ അയയ്ക്കാനോ ഉടമകളെ അറിയിക്കാതെ അവരുടെ ഇവന്റുകളെ മാറ്റാനോ ഈ ആപ്പിന് കഴിയും.",
        "permdesc_writeCallLog": "ഇൻകമ്മിംഗ്-ഔട്ട്ഗോയിംഗ് കോളുകളെക്കുറിച്ചുള്ള ഡാറ്റയുൾപ്പെടെയുള്ള നിങ്ങളുടെ ഫോണിന്‍റെ കോൾ ചരിത്രം പരിഷ്‌ക്കരിക്കാൻ അപ്ലിക്കേഷനെ അനുവദിക്കുന്നു.ഇതു വഴി കോൾ ചരിത്ര ഡാറ്റകൾ പരിഷ്‌ക്കരിക്കാനും ഇല്ലാതാക്കാനും ദോഷകരമായ അപ്ലിക്കേഷനുകൾക്ക് കഴിഞ്ഞേയ്ക്കാം.",
        "permdesc_writeContacts": "നിശ്ചിത കോൺടാക്റ്റുകളെ മറ്റ് മാർഗങ്ങളിൽ നിങ്ങൾ എത്ര തവണ വിളിച്ചിട്ടുണ്ടെന്നതോ അവർക്ക് ഇമെയിൽ ചെയ്‌തിട്ടുണ്ടെന്നതോ ആശയവിനിമയം നടത്തിയിട്ടുണ്ടെന്നതോ ഉൾപ്പെടെ, നിങ്ങളുടെ ഫോണിൽ സംഭരിച്ചിരിക്കുന്ന നിങ്ങളുടെ കോൺടാക്റ്റുകളെക്കുറിച്ചുള്ള ഡാറ്റ പരിഷ്‌ക്കരിക്കാൻ അപ്ലിക്കേഷനെ അനുവദിക്കുന്നു. ഈ അനുമതി കോൺടാക്റ്റ് ഡാറ്റ ഇല്ലാതാക്കാൻ അപ്ലിക്കേഷനുകളെ അനുവദിക്കുന്നു.",
        "permdesc_writeGeolocationPermissions": "ബ്രൗസറിന്റെ ജിയോലൊക്കേഷൻ അനുമതികളെ പരിഷ്‌ക്കരിക്കുന്നതിന് അപ്ലിക്കേഷനെ അനുവദിക്കുന്നു. അനിയന്ത്രിതമായ വെബ്‌സൈറ്റുകളിലേക്ക് ലൊക്കേഷൻ വിവരം അയയ്ക്കാൻ അനുവദിക്കുന്നതിന് ദോഷകരമായ അപ്ലിക്കേഷനുകൾ ഇത് ഉപയോഗിച്ചേക്കാം.",
        "permdesc_writeHistoryBookmarks": "നിങ്ങളുടെ ഫോണിൽ സംഭരിച്ചിരിക്കുന്ന ബ്രൗസറിന്റെ ചരിത്രമോ ബുക്ക്‌മാർക്കുകളോ പരിഷ്‌ക്കരിക്കാൻ അപ്ലിക്കേഷനെ അനുവദിക്കുന്നു. ഇത് ബ്രൗസർ ഡാറ്റ മായ്‌ക്കാനോ പരിഷ്‌ക്കരിക്കാനോ അപ്ലിക്കേഷനെ അനുവദിക്കാനിടയുണ്ട്. ശ്രദ്ധിക്കുക: ഈ അനുമതി മൂന്നാം കക്ഷി ബ്രൗസറുകളോ വെബ് ബ്രൗസിംഗ് കഴിവുകളുള്ള മറ്റ് അപ്ലിക്കേഷനുകളോ നടപ്പിലാക്കാനിടയില്ല.",
        "permdesc_writeSettings": "സിസ്‌‌റ്റത്തിന്റെ സുരക്ഷ ക്രമീകരണങ്ങളുടെ ഡാറ്റ പരിഷ്‌ക്കരിക്കുന്നതിന് അപ്ലിക്കേഷനെ അനുവദിക്കുന്നു. ദോഷകരമായ അപ്ലിക്കേഷനുകൾ നിങ്ങളുടെ സി‌സ്റ്റത്തിന്റെ കോൺഫിഗറേഷനെ കേടാക്കിയേക്കാം.",
        "permdesc_writeSyncSettings": "ഒരു അക്കൗണ്ടിനായി സമന്വയ ക്രമീകരണങ്ങൾ പരിഷ്‌ക്കരിക്കാൻ അപ്ലിക്കേഷനെ അനുവദിക്കുന്നു. ഉദാഹരണത്തിന്, ആളുകൾ അപ്ലിക്കേഷൻ ഒരു അക്കൗണ്ടിൽ സമന്വയിപ്പിക്കുന്നത് പ്രവർത്തനക്ഷമമാക്കാൻ ഇത് ഉപയോഗിക്കാം.",
        "permgroupbackgroundrequestdetail_location": "നിലവിൽ, ഉപയോഗിക്കുമ്പോൾ മാത്രം ആപ്പിന് ലൊക്കേഷൻ ആക്‌സസ് ചെയ്യാം",
        "permgroupdesc_activityRecognition": "ശാരീരിക പ്രവർത്തനം ആക്‌സസ് ചെയ്യുക",
        "permgroupdesc_calendar": "നിങ്ങളുടെ കലണ്ടർ ആക്‌സസ്സ് ചെയ്യുക",
        "permgroupdesc_calllog": "ഫോൺ കോൾ ലോഗ് വായിക്കുകയും എഴുതുകയും ചെയ്യുക",
        "permgroupdesc_camera": "ചിത്രങ്ങളെടുത്ത് വീഡിയോ റെക്കോർഡുചെയ്യുക",
        "permgroupdesc_contacts": "നിങ്ങളുടെ കോൺടാക്റ്റുകൾ ആക്‌സസ്സ് ചെയ്യുക",
        "permgroupdesc_location": "ഈ ഉപകരണത്തിന്റെ ലൊക്കേഷൻ ആക്സസ് ചെയ്യാൻ",
        "permgroupdesc_microphone": "ഓഡിയോ റെക്കോർഡ് ചെയ്യുക",
        "permgroupdesc_phone": "ഫോൺ വിളിക്കുകയും നിയന്ത്രിക്കുകയും ചെയ്യുക",
        "permgroupdesc_sensors": "നിങ്ങളുടെ ജീവാധാര ലക്ഷണങ്ങളെ കുറിച്ചുള്ള സെൻസർ വിവരങ്ങൾ ആക്സസ് ചെയ്യുക",
        "permgroupdesc_sms": "SMS സന്ദേശങ്ങൾ അയയ്‌ക്കുകയും കാണുകയും ചെയ്യുക",
        "permgroupdesc_storage": "നിങ്ങളുടെ ഉപകരണത്തിലെ ഫോട്ടോകളും മീഡിയയും ഫയലുകളും ആക്സസ് ചെയ്യുക",
        "permgrouplab_activityRecognition": "ശാരീരിക പ്രവർത്തനം",
        "permgrouplab_calendar": "കലണ്ടർ",
        "permgrouplab_calllog": "കോൾ ലോഗുകൾ",
        "permgrouplab_camera": "ക്യാമറ",
        "permgrouplab_contacts": "കോൺടാക്റ്റുകൾ",
        "permgrouplab_location": "ലൊക്കേഷൻ",
        "permgrouplab_microphone": "മൈക്രോഫോണ്‍",
        "permgrouplab_phone": "ഫോണ്‍",
        "permgrouplab_sensors": "ബോഡി സെൻസറുകൾ",
        "permgrouplab_sms": "SMS",
        "permgrouplab_storage": "സ്റ്റോറേജ്",
        "permgrouprequest_activityRecognition": "<b>",
        "permgrouprequest_calendar": "നിങ്ങളുടെ കലണ്ടർ ആക്‌സസ് ചെയ്യാൻ <b>",
        "permgrouprequest_calllog": "നിങ്ങളുടെ ഫോൺ കോൾ ലോഗുകൾ ആക്സസ് ചെയ്യാൻ <b>",
        "permgrouprequest_camera": "ചിത്രം എടുക്കാനും വീഡിയോ റെക്കോർഡ് ചെയ്യാനും <b>",
        "permgrouprequest_contacts": "നിങ്ങളുടെ കോണ്‍ടാക്റ്റുകള്‍ ആക്‌സസ് ചെയ്യാൻ <b>",
        "permgrouprequest_location": "ഈ ഉപകരണത്തിന്റെ ലൊക്കേഷൻ ആക്‌സസ് ചെയ്യാൻ <b>",
        "permgrouprequest_microphone": "ഓഡിയോ റെക്കോർഡ് ചെയ്യാൻ <b>",
        "permgrouprequest_phone": "ഫോൺ കോളുകൾ ചെയ്യാനും അവ മാനേജ് ചെയ്യാനും <b>",
        "permgrouprequest_sensors": "നിങ്ങളുടെ ജീവധാരണ ലക്ഷണങ്ങളെ കുറിച്ചുള്ള സെൻസർ ഡാറ്റ ആക്‌സസ് ചെയ്യാൻ <b>",
        "permgrouprequest_sms": "SMS സന്ദേശങ്ങൾ അയയ്ക്കാനും കാണാനും <b>",
        "permgrouprequest_storage": "നിങ്ങളുടെ ഉപകരണത്തിലെ ഫോട്ടോകളും മീഡിയയും ഫയലുകളും ആക്‌സസ് ചെയ്യാൻ <b>",
        "permgrouprequestdetail_location": "നിങ്ങൾ ആപ്പ് ഉപയോഗിക്കുമ്പോൾ മാത്രമേ അതിന് ലൊക്കേഷൻ ആക്‌സസ് ലഭിക്കൂ.",
        "permlab_acceptHandover": "മറ്റൊരു ആപ്പിൽ നിന്നുള്ള കോൾ തുടരുക",
        "permlab_accessBackgroundLocation": "പശ്ചാത്തലത്തിൽ ലൊക്കേഷൻ ആക്‌സസ് ചെയ്യുക",
        "permlab_accessCoarseLocation": "ഫോർഗ്രൗണ്ടിൽ മാത്രം, ഏകദേശ ലൊക്കേഷൻ (നെറ്റ്‌വർക്ക്-അടിസ്ഥാനമാക്കി) ആക്‌സസ് ചെയ്യുക",
        "permlab_accessDrmCertificates": "DRM സർട്ടിഫിക്കറ്റുകൾക്കുള്ള ആക്‌സസ്സ്",
        "permlab_accessFineLocation": "ഫോർഗ്രൗണ്ടിൽ മാത്രം കൃത്യമായ ലൊക്കേഷൻ ആക്‌സസ് ചെയ്യുക",
        "permlab_accessImsCallService": "IMS കോൾ സേവനം ആക്സസ് ചെയ്യുക",
        "permlab_accessLocationExtraCommands": "ലൊക്കേഷൻ ദാതാവിന്റെ അധിക കമാൻഡുകൾ ആക്‌സസ്സുചെയ്യുക",
        "permlab_accessNetworkConditions": "നെറ്റ്‌വർക്ക് നിലകളിൽ നിരീക്ഷണത്തിനായി കേൾക്കുക",
        "permlab_accessNetworkState": "നെറ്റ്‌വർക്ക് കണക്ഷനുകൾ കാണുക",
        "permlab_accessNotifications": "അറിയിപ്പുകൾ ആക്‌സസ്സുചെയ്യുക",
        "permlab_accessWifiState": "വൈഫൈ കണക്ഷനുകൾ കാണുക",
        "permlab_accessWimaxState": "WiMAX കണക്റ്റുചെയ്യുക, അതിൽ നിന്നും വിച്ഛേദിക്കുക",
        "permlab_access_notification_policy": "'ശല്യപ്പെടുത്തരുത്' ആക്സസ് ചെയ്യുക",
        "permlab_activityRecognition": "ശാരീരിക പ്രവർത്തനം തിരിച്ചറിയുക",
        "permlab_addVoicemail": "വോയ്‌സ് മെയിൽ ചേർക്കുക",
        "permlab_answerPhoneCalls": "ഫോൺ കോളുകൾക്ക് മറുപടി നൽകുക",
        "permlab_audioWrite": "നിങ്ങളുടെ സംഗീത ശേഖരം പരിഷ്‌കരിക്കുക",
        "permlab_bindCarrierMessagingService": "കാരിയർ സന്ദേശമയയ്‌ക്കൽ സേവനത്തിലേക്ക് ബന്ധിപ്പിക്കുക",
        "permlab_bindCarrierServices": "കാരിയർ സേവനങ്ങളിലേക്ക് ബന്ധിപ്പിക്കുക",
        "permlab_bindConditionProviderService": "കണ്ടീഷൻ പ്രൊവൈഡർ സേവനവുമായി ബന്ധിപ്പിക്കുക",
        "permlab_bindDreamService": "സ്വപ്‌നതുല്യമായ ഒരു സേവനത്തിലേക്ക് ബന്ധിപ്പിക്കുക",
        "permlab_bindNotificationListenerService": "ഒരു അറിയിപ്പ് ലിസണർ സേവനവുമായി ബന്ധിപ്പിക്കുക",
        "permlab_bind_connection_service": "ടെലിഫോണി സേവനങ്ങൾ ഉപയോഗിച്ച് സംവദിക്കുക",
        "permlab_bind_incall_service": "ഇൻ-കോൾ സ്‌ക്രീനുമായി സംവദിക്കുക",
        "permlab_bluetooth": "ബ്ലൂടൂത്ത് ഉപകരണങ്ങളുമായി ജോടിയാക്കുക",
        "permlab_bluetoothAdmin": "ബ്ലൂടൂത്ത് ക്രമീകരണങ്ങൾ ആക്സസ്സുചെയ്യുക",
        "permlab_bodySensors": "ശരീര സെൻസറുകൾ (ഹൃദയമിടിപ്പ് നിരക്ക് മോണിറ്ററുകൾ പോലെ) ആക്സസ് ചെയ്യുക",
        "permlab_broadcastSticky": "സ്റ്റിക്കി പ്രക്ഷേപണം അയ‌യ്‌ക്കുക",
        "permlab_callCompanionApp": "സിസ്‌റ്റത്തിലൂടെ കോളുകൾ കാണുകയും നിയന്ത്രിക്കുകയും ചെയ്യുക.",
        "permlab_callPhone": "ഫോൺ നമ്പറുകളിലേക്ക് നേരിട്ട് വിളിക്കുക",
        "permlab_camera": "ചിത്രങ്ങളും വീഡിയോകളും എടുക്കുക",
        "permlab_changeNetworkState": "നെറ്റ്‌വർക്ക് കണക്‌റ്റിവിറ്റി മാറ്റുക",
        "permlab_changeTetherState": "ടെതർ ചെയ്‌ത കണക്‌റ്റിവിറ്റി മാറ്റുക",
        "permlab_changeWifiMulticastState": "വൈഫൈ മൾട്ടികാസ്‌റ്റ് റിസപ്‌ഷൻ അനുവദിക്കുക",
        "permlab_changeWifiState": "വൈഫൈ കണക്റ്റുചെയ്യുക, അതിൽ നിന്നും വിച്ഛേദിക്കുക",
        "permlab_changeWimaxState": "WiMAX നില മാറ്റുക",
        "permlab_connection_manager": "ടെലികോം കണക്ഷനുകൾ നിയന്ത്രിക്കുക",
        "permlab_control_incall_experience": "ഇൻ‌-കോൾ ഉപയോക്തൃ അനുഭവം നൽകുക",
        "permlab_createNetworkSockets": "പൂർണ്ണ നെറ്റ്‌വർക്ക് ആക്സസ് നൽകുക",
        "permlab_disableKeyguard": "നിങ്ങളുടെ സ്‌ക്രീൻ ലോക്ക് പ്രവർത്തനരഹിതമാക്കുക",
        "permlab_enableCarMode": "കാർ മോഡ് പ്രവർത്തനക്ഷമമാക്കുക",
        "permlab_expandStatusBar": "സ്റ്റാറ്റസ് വിപുലീകരിക്കുക/ചുരുക്കുക",
        "permlab_foregroundService": "മുൻവശത്തുള്ള സേവനം റൺ ചെയ്യുക",
        "permlab_getAccounts": "ഉപകരണത്തിലെ അക്കൗണ്ടുകൾ കണ്ടെത്തുക",
        "permlab_getPackageSize": "അപ്ലിക്കേഷൻ സംഭരണയിടം അളക്കുക",
        "permlab_getTasks": "പ്രവർത്തിക്കുന്ന അപ്ലിക്കേഷനുകൾ വീണ്ടെടുക്കുക",
        "permlab_handoverStatus": "Android ബീം കൈമാറൽ നില സ്വീകരിക്കുക",
        "permlab_imagesWrite": "നിങ്ങളുടെ ഫോട്ടോ ശേഖരം പരിഷ്‌കരിക്കുക",
        "permlab_install_shortcut": "കുറുക്കുവഴികൾ ഇൻസ്റ്റാളുചെയ്യുക",
        "permlab_invokeCarrierSetup": "കാരിയർ നൽകിയ കോൺഫിഗറേഷൻ അപ്ലിക്കേഷൻ റദ്ദാക്കുക",
        "permlab_killBackgroundProcesses": "മറ്റ് അപ്ലിക്കേഷനുകൾ അടയ്‌ക്കുക",
        "permlab_manageFace": "മുഖം തിരിച്ചറിയൽ ഹാർഡ്‌വെയർ മാനേജ് ചെയ്യുക",
        "permlab_manageFingerprint": "ഫിംഗർപ്രിന്റ് ഹാർഡ്‌വെയർ നിയന്ത്രിക്കുക",
        "permlab_manageNetworkPolicy": "നെറ്റ്‌വർക്ക് നയം നിയന്ത്രിക്കുക",
        "permlab_manageOwnCalls": "കോളുകൾ സിസ്റ്റത്തിലൂടെ വിടുക",
        "permlab_manageProfileAndDeviceOwners": "പ്രൊഫൈൽ, ഉപകരണ ഉടമകളെ മാനേജുചെയ്യുക",
        "permlab_mediaLocation": "നിങ്ങളുടെ മീഡിയ ശേഖരത്തിൽ നിന്നും ലൊക്കേഷനുകൾ റീഡ് ചെയ്യുക",
        "permlab_modifyAudioSettings": "നിങ്ങളുടെ ഓഡിയോ ക്രമീകരണങ്ങൾ മാറ്റുക",
        "permlab_modifyNetworkAccounting": "നെറ്റ്‌വർക്ക് ഉപയോഗ അക്കൗണ്ടിംഗ് പരിഷ്‌ക്കരിക്കുക",
        "permlab_nfc": "സമീപ ഫീൽഡുമായുള്ള ആശയവിനിമയം നിയന്ത്രിക്കുക",
        "permlab_persistentActivity": "അപ്ലിക്കേഷൻ എപ്പോഴും പ്രവർത്തിക്കുന്നതാക്കുക",
        "permlab_processOutgoingCalls": "ഔട്ട്‌ഗോയിംഗ് കോളുകൾ വീണ്ടും റൂട്ടുചെയ്യുക",
        "permlab_readCalendar": "കലണ്ടർ ഇവന്റുകളും വിശദാംശങ്ങളും വായിക്കുക",
        "permlab_readCallLog": "കോൾ ചരിത്രം റീഡ് ചെയ്യുക",
        "permlab_readCellBroadcasts": "സെൽ പ്രക്ഷേപണ സന്ദേശങ്ങൾ റീഡുചെയ്യുക",
        "permlab_readContacts": "നിങ്ങളുടെ കോൺടാക്റ്റുകൾ റീഡുചെയ്യുക",
        "permlab_readHistoryBookmarks": "വെബ് ബുക്ക്‌മാർക്കുകളും ചരിത്രവും റീഡുചെയ്യുക",
        "permlab_readInstallSessions": "ഇൻസ്‌റ്റാൾ സെഷനുകൾ റീഡുചെയ്യുക",
        "permlab_readNetworkUsageHistory": "ചരിത്രപരമായ നെറ്റ്‌വർക്ക് ഉപയോഗം വായിക്കുക",
        "permlab_readPhoneNumbers": "ഫോൺ നമ്പറുകൾ റീഡുചെയ്യൽ",
        "permlab_readPhoneState": "ഫോൺ നിലയും ഐഡന്റിറ്റിയും റീഡുചെയ്യുക",
        "permlab_readSms": "നിങ്ങളുടെ വാചക സന്ദേശങ്ങൾ വായിക്കുക (SMS അല്ലെങ്കിൽ MMS)",
        "permlab_readSyncSettings": "സമന്വയ ക്രമീകരണങ്ങൾ റീഡുചെയ്യുക",
        "permlab_readSyncStats": "സമന്വയ സ്ഥിതിവിവരണക്കണക്കുകൾ വായിക്കുക",
        "permlab_receiveBootCompleted": "സ്റ്റാർട്ടപ്പിൽ പ്രവർത്തിക്കുക",
        "permlab_receiveMms": "വാചക സന്ദേശം നേടുക (MMS)",
        "permlab_receiveSms": "വാചക സന്ദേശം നേടുക (SMS)",
        "permlab_receiveWapPush": "വാചക സന്ദേശം നേടുക (WAP)",
        "permlab_recordAudio": "ഓഡിയോ റെക്കോർഡ് ചെയ്യുക",
        "permlab_register_call_provider": "പുതിയ ടെലികോം കണക്ഷനുകൾ രജിസ്‌റ്റർ ചെയ്യുക",
        "permlab_register_sim_subscription": "പുതിയ ടെലികോം SIM കണക്ഷനുകൾ രജിസ്‌റ്റർ ചെയ്യുക",
        "permlab_removeDrmCertificates": "DRM സർട്ടിഫിക്കറ്റുകൾ നീക്കം ചെയ്യുക",
        "permlab_reorderTasks": "പ്രവർത്തിക്കുന്ന അപ്ലിക്കേഷനുകൾ പുനഃക്രമീകരിക്കുക",
        "permlab_requestDeletePackages": "പാക്കേജുകൾ ഇല്ലാതാക്കാൻ അഭ്യർത്ഥിക്കുക",
        "permlab_requestIgnoreBatteryOptimizations": "ബാറ്ററി ഒപ്റ്റിമൈസേഷനുകൾ അവഗണിക്കാൻ ആവശ്യപ്പെടുക",
        "permlab_requestInstallPackages": "പാക്കേജുകൾ ഇൻസ്റ്റാൾ ചെയ്യാൻ അഭ്യർത്ഥിക്കുക",
        "permlab_requestPasswordComplexity": "സ്‌ക്രീൻ ലോക്ക് സങ്കീർണ്ണത അഭ്യർത്ഥിക്കുക",
        "permlab_route_media_output": "മീഡിയ ഔട്ട്പുട്ട് റൂട്ടുചെയ്യുക",
        "permlab_runInBackground": "പശ്ചാത്തലത്തിൽ പ്രവർത്തിക്കൽ",
        "permlab_sdcardRead": "നിങ്ങൾ പങ്കിടുന്ന സ്‌റ്റോറേജിലെ ഉള്ളടക്കങ്ങൾ വായിക്കുക",
        "permlab_sdcardWrite": "നിങ്ങൾ പങ്കിടുന്ന സ്‌റ്റോറേജിലെ ഉള്ളടക്കങ്ങൾ പരിഷ്‌ക്കരിക്കുക അല്ലെങ്കിൽ ഇല്ലാതാക്കുക",
        "permlab_sendSms": "SMS സന്ദേശങ്ങൾ അയയ്‌ക്കുകയും കാണുകയും ചെയ്യുക",
        "permlab_setAlarm": "ഒരു അലാറം സജ്ജീകരിക്കുക",
        "permlab_setInputCalibration": "ഇൻപുട്ട് ഉപകരണ കാലിബ്രേഷൻ മാറ്റുക",
        "permlab_setTimeZone": "സമയ മേഖല സജ്ജീകരിക്കുക",
        "permlab_setWallpaper": "വാൾപേപ്പർ സജ്ജീകരിക്കുക",
        "permlab_setWallpaperHints": "നിങ്ങളുടെ വാൾപേപ്പർ വലുപ്പം ക്രമീകരിക്കുക",
        "permlab_sim_communication": "SIM-ലേക്ക് കമാൻഡുകൾ അയയ്ക്കുക",
        "permlab_startViewPermissionUsage": "അനുമതി ഉപയോഗം കാണാൻ ആരംഭിക്കുക",
        "permlab_statusBar": "സ്റ്റാറ്റസ് ബാർ പ്രവർത്തനരഹിതമാക്കുക അല്ലെങ്കിൽ പരിഷ്‌ക്കരിക്കുക",
        "permlab_statusBarService": "സ്റ്റാറ്റസ് ബാർ ആയിരിക്കുക",
        "permlab_subscribedFeedsRead": "സബ്‌സ്ക്രൈബ് ചെയ്‌ത ഫീഡുകൾ വായിക്കുക",
        "permlab_systemAlertWindow": "ഈ ആപ്പിന്, മറ്റ് ആപ്‌സിന്റെ മുകളിൽ ദൃശ്യമാകാൻ കഴിയും",
        "permlab_transmitIr": "ഇൻഫ്രാറെഡ് അയയ്‌ക്കുക",
        "permlab_uninstall_shortcut": "കുറുക്കുവഴികൾ അൺഇൻസ്റ്റാളുചെയ്യുക",
        "permlab_useBiometric": "ബയോമെട്രിക് ഹാർ‌ഡ്‌വെയർ ഉപയോഗിക്കുക",
        "permlab_useDataInBackground": "പശ്ചാത്തലത്തിൽ ഡാറ്റ ഉപയോഗിക്കൽ",
        "permlab_useFaceAuthentication": "മുഖം തിരിച്ചറിയൽ ഹാർഡ്‌വെയർ ഉപയോഗിക്കുക",
        "permlab_useFingerprint": "ഫിംഗർപ്രിന്റ് ഹാർഡ്‌വെയർ ഉപയോഗിക്കുക",
        "permlab_use_sip": "SIP കോളുകൾ വിളിക്കുക/സ്വീകരിക്കുക",
        "permlab_vibrate": "വൈബ്രേറ്റുചെയ്യൽ നിയന്ത്രിക്കുക",
        "permlab_videoWrite": "നിങ്ങളുടെ വീഡിയോ ശേഖരം പരിഷ്‌കരിക്കുക",
        "permlab_wakeLock": "ഉറങ്ങുന്നതിൽ നിന്ന് ഫോണിനെ തടയുക",
        "permlab_writeCalendar": "ഉടമകളുടെ അറിവില്ലാതെ കലണ്ടർ ഇവന്റുകൾ ചേർക്കുകയോ പരിഷ്‌ക്കരിക്കുകയോ ചെയ്‌ത് അതിഥികൾക്ക് ഇമെയിൽ അയയ്‌ക്കുക",
        "permlab_writeCallLog": "കോൾ ചരിത്രം റൈറ്റ് ചെയ്യുക",
        "permlab_writeContacts": "നിങ്ങളുടെ കോൺടാക്റ്റുകൾ പരിഷ്‌ക്കരിക്കുക",
        "permlab_writeGeolocationPermissions": "ബ്രൗസർ ജിയോലൊക്കേഷൻ അനുമതികൾ പരിഷ്‌ക്കരിക്കുക",
        "permlab_writeHistoryBookmarks": "വെബ് ബുക്ക്‌മാർക്കുകളും ചരിത്രവും റൈറ്റുചെയ്യുക",
        "permlab_writeSettings": "സിസ്റ്റം ക്രമീകരണങ്ങൾ പരിഷ്‌ക്കരിക്കുക",
        "permlab_writeSyncSettings": "സമന്വയം ഓണാക്കുക, ഓഫാക്കുക ടോഗിൾചെയ്യുക"
    }
}
